Division,WeightClassKg,Place,Name,Team,BodyweightKg,Best3SquatKg,Best3BenchKg,Best3DeadliftKg,TotalKg,Equipment,Event,Sex
Boys,51.71,1,Josue Leon,Sulphur Springs,50.35,170.1,90.72,181.44,442.25,Single-ply,SBD,M
Boys,51.71,2,Kendrel Wilson,Longview,51.71,136.08,74.84,154.22,365.14,Single-ply,SBD,M
Boys,51.71,3,Wylie Brown,Nacogdoches,51.03,131.54,74.84,151.95,358.34,Single-ply,SBD,M
Boys,51.71,4,Jesse Ortiz,Sulphur Springs,50.35,136.08,72.57,145.15,353.8,Single-ply,SBD,M
Boys,51.71,5,Jakovan Williams,Nacogdoches,50.35,117.93,61.23,149.69,328.85,Single-ply,SBD,M
Boys,51.71,6,Michael Claus,Midlothian,51.26,108.86,56.7,122.47,288.03,Single-ply,SBD,M
Boys,51.71,7,Colby Cowan,Forney,51.26,90.72,38.56,102.06,231.33,Single-ply,SBD,M
Boys,51.71,DQ,Adrian Brackens,Forney,51.71,120.2,,,,Single-ply,SBD,M
Boys,55.79,1,Pete Rios,Waxahachie,53.07,158.76,83.91,149.69,392.36,Single-ply,SBD,M
Boys,55.79,2,Luis Gamez #1,Sulphur Springs,54.66,151.95,90.72,149.69,392.36,Single-ply,SBD,M
Boys,55.79,3,Ta'Montre Mitchell,Greenville,54.66,156.49,81.65,129.27,367.41,Single-ply,SBD,M
Boys,55.79,4,Christian Fisk,Longview Pine Tree,55.11,142.88,68.04,145.15,356.07,Single-ply,SBD,M
Boys,55.79,5,Ruben Esquivel,Corsicana,54.43,129.27,72.57,140.61,342.46,Single-ply,SBD,M
Boys,55.79,6,Camron King,Marshall,54.66,149.69,56.7,131.54,337.93,Single-ply,SBD,M
Boys,55.79,7,Daquwan Mark,Huntsville,54.88,120.2,52.16,156.49,328.85,Single-ply,SBD,M
Boys,59.87,8,Preston Stripling,Midlothian,56.02,115.67,83.91,120.2,319.78,Single-ply,SBD,M
Boys,59.87,9,Darrell Taylor,Marshall,56.02,122.47,61.23,127.01,310.71,Single-ply,SBD,M
Boys,55.79,10,David Blackwell,Nacogdoches,54.2,129.27,52.16,113.4,294.84,Single-ply,SBD,M
Boys,59.87,1,Terrence Butler,Texarkana Texas,59.87,165.56,83.91,183.7,433.18,Single-ply,SBD,M
Boys,59.87,2,Jesus Vasquez,Red Oak,57.15,170.1,81.65,165.56,417.3,Single-ply,SBD,M
Boys,59.87,3,Eric Stanfield,Greenville,57.83,170.1,90.72,147.42,408.23,Single-ply,SBD,M
Boys,59.87,4,Samuel Hammons,Sulphur Springs,59.87,145.15,88.45,167.83,401.43,Single-ply,SBD,M
Boys,59.87,5,Micah Ethington,Nacogdoches,58.74,151.95,86.18,158.76,396.89,Single-ply,SBD,M
Boys,59.87,6,Rory Jefferson,Huntsville,58.97,154.22,81.65,154.22,390.09,Single-ply,SBD,M
Boys,59.87,7,Forest Lemon,Nacogdoches,59.19,136.08,83.91,151.95,371.95,Single-ply,SBD,M
Boys,59.87,8,Tyler Walker,Red Oak,59.42,129.27,72.57,156.49,358.34,Single-ply,SBD,M
Boys,67.13,1,Alex Pierson,Longview,62.14,183.7,97.52,204.12,485.34,Single-ply,SBD,M
Boys,67.13,2,Edgar Simmons,Marshall,61.69,190.51,115.67,176.9,483.08,Single-ply,SBD,M
Boys,67.13,3,Ben Bush,Red Oak,64.41,181.44,102.06,181.44,464.93,Single-ply,SBD,M
Boys,67.13,4,Josh Goolsby,Huntsville,64.86,158.76,106.59,188.24,453.59,Single-ply,SBD,M
Boys,67.13,5,Javonte Parker,Marshall,61.23,176.9,86.18,181.44,444.52,Single-ply,SBD,M
Boys,67.13,6,Justin Bledsoe,Longview Pine Tree,63.05,158.76,95.25,174.63,428.64,Single-ply,SBD,M
Boys,67.13,7,Jacob Mitchell,Greenville,66.22,151.95,92.99,154.22,399.16,Single-ply,SBD,M
Boys,67.13,8,Dempsey Duprie,Midlothian,65.54,147.42,90.72,156.49,394.63,Single-ply,SBD,M
Boys,67.13,9,Alfred Champion,Greenville,62.14,190.51,99.79,,290.3,Single-ply,SB,M
Boys,67.13,10,Speedy Gonzales,Ennis,66.68,165.56,97.52,,263.08,Single-ply,SB,M
Boys,74.84,1,Austin Martin #3,Greenville,71.44,238.14,131.54,226.8,596.47,Single-ply,SBD,M
Boys,74.84,2,Jacovin Coats,Marshall,72.57,217.72,111.13,235.87,564.72,Single-ply,SBD,M
Boys,82.1,3,Bacardi Clark,Forney,75.07,213.19,108.86,213.19,535.24,Single-ply,SBD,M
Boys,74.84,4,Santos Estrada,Hallsville,73.26,190.51,131.54,188.24,510.29,Single-ply,SBD,M
Boys,74.84,5,Tayelor Doty,Greenville,72.12,190.51,124.74,181.44,496.68,Single-ply,SBD,M
Boys,74.84,6,Lloyd Douglass,Texarkana Texas,72.57,174.63,115.67,188.24,478.54,Single-ply,SBD,M
Boys,74.84,7,Kensha Talley,Marshall,70.94,163.29,106.59,197.31,467.2,Single-ply,SBD,M
Boys,74.84,DQ,Jalen Johnson,Longview,72.57,192.78,,,,Single-ply,SBD,M
Boys,74.84,DQ,Nolan Allen,Marshall,69.85,,,,,Single-ply,SBD,M
Boys,74.84,DQ,Johnathon Carlisle,Sulphur Springs,71.21,215.46,127.01,,,Single-ply,SBD,M
Boys,82.1,1,Travis Turner,Texarkana Texas,81.42,249.48,136.08,226.8,612.35,Single-ply,SBD,M
Boys,82.1,2,Cameron Bausley,Red Oak,77.56,231.33,124.74,231.33,587.4,Single-ply,SBD,M
Boys,82.1,3,Austin Pitts,Marshall,81.42,204.12,131.54,208.65,544.31,Single-ply,SBD,M
Boys,82.1,4,Tay Roper,Forney,76.2,213.19,86.18,231.33,530.7,Single-ply,SBD,M
Boys,82.1,5,Landon Emmert,Ennis,78.47,208.65,111.13,210.92,530.7,Single-ply,SBD,M
Boys,82.1,6,Austin Gibson,Jacksonville,79.61,190.51,124.74,204.12,519.36,Single-ply,SBD,M
Boys,82.1,DQ,Jamarlon Brown,Mount Pleasant,81.19,,,,,Single-ply,SBD,M
Boys,82.1,DQ,Eric Montemayor,Ennis,78.02,183.7,,,,Single-ply,SBD,M
Boys,89.81,1,Dequan Raindle,Corsicana,86.64,240.4,122.47,269.89,632.76,Single-ply,SBD,M
Boys,89.81,2,Craig Renfro,Waxahachie,85.73,249.48,124.74,256.28,630.49,Single-ply,SBD,M
Boys,89.81,3,Roderick Boyd,Hallsville,84.59,226.8,142.88,217.72,587.4,Single-ply,SBD,M
Boys,89.81,4,Colton Henderson,Terrell,89.36,192.78,136.08,204.12,532.97,Single-ply,SBD,M
Boys,89.81,5,Kenderson Cooks,Marshall,89.81,215.46,104.33,210.92,530.7,Single-ply,SBD,M
Boys,89.81,6,Andrew Chirwa,Texarkana Texas,86.64,215.46,120.2,183.7,519.36,Single-ply,SBD,M
Boys,89.81,7,Caleb Shaw,Midlothian,88,188.24,124.74,185.97,498.95,Single-ply,SBD,M
Boys,89.81,DQ,Javon Johnson,Jacksonville,89.36,,,,,Single-ply,SBD,M
Boys,89.81,DQ,Snoop Harvey,Ennis,88,,,,,Single-ply,SBD,M
Boys,99.79,1,Dekota Newson,Marshall,97.75,263.08,145.15,267.62,675.85,Single-ply,SBD,M
Boys,99.79,2,Bryan Randall,Waxahachie,97.52,240.4,170.1,249.48,659.98,Single-ply,SBD,M
Boys,99.79,3,Rj Zavala,Waxahachie,97.52,249.48,154.22,235.87,639.57,Single-ply,SBD,M
Boys,99.79,4,Christian Stewart,Forney,97.52,222.26,149.69,229.06,601.01,Single-ply,SBD,M
Boys,99.79,5,Chase Palmer,Jacksonville,97.52,217.72,129.27,222.26,569.26,Single-ply,SBD,M
Boys,99.79,6,Ben Blakely,Red Oak,91.63,183.7,124.74,215.46,523.9,Single-ply,SBD,M
Boys,99.79,DQ,Corey Lowe,Texarkana Texas,93.44,,,,,Single-ply,SBD,M
Boys,99.79,DQ,Anthony Hambric #1,Forney,92.99,,,,,Single-ply,SBD,M
Boys,99.79,DQ,Blake McCown,Texarkana Texas,94.12,,,,,Single-ply,SBD,M
Boys,109.77,1,Eddie Calico,Longview Pine Tree,104.33,310.71,204.12,299.37,814.2,Single-ply,SBD,M
Boys,109.77,2,Bridge Blount,Huntsville,106.82,299.37,183.7,297.1,780.18,Single-ply,SBD,M
Boys,109.77,3,Thomas Marek,Red Oak,107.95,260.82,147.42,210.92,619.15,Single-ply,SBD,M
Boys,109.77,4,James Lockhart,Ennis,105.01,226.8,133.81,219.99,580.6,Single-ply,SBD,M
Boys,109.77,5,Mark Malone,Longview,105.23,204.12,111.13,249.48,564.72,Single-ply,SBD,M
Boys,109.77,6,Brandon Saens,Red Oak,103.19,217.72,122.47,210.92,551.11,Single-ply,SBD,M
Boys,109.77,7,Tray King,Hallsville,100.24,226.8,122.47,199.58,548.85,Single-ply,SBD,M
Boys,109.77,8,Adrian Zavala,Waxahachie,100.06,185.97,129.27,226.8,542.04,Single-ply,SBD,M
Boys,109.77,9,Christian Million,Waxahachie,104.33,183.7,131.54,217.72,532.97,Single-ply,SBD,M
Boys,109.77,10,Stevie Morrow,Ennis,107.5,217.72,108.86,188.24,514.83,Single-ply,SBD,M
Boys,124.74,1,Donovan Webb,Longview,117.03,326.59,149.69,231.33,707.6,Single-ply,SBD,M
Boys,124.74,2,Justin Lewis,Texarkana Texas,114.76,276.69,149.69,235.87,662.24,Single-ply,SBD,M
Boys,124.74,3,Dominic Kelly,Corsicana,111.13,249.48,154.22,242.67,646.37,Single-ply,SBD,M
Boys,124.74,4,Chris Ramos,Forney,121.11,244.94,147.42,238.14,630.49,Single-ply,SBD,M
Boys,124.74,5,Sammie Overton,Waxahachie,114.76,226.8,122.47,235.87,585.13,Single-ply,SBD,M
Boys,124.74,6,William Mitchell,Longview Pine Tree,111.13,249.48,131.54,201.85,582.87,Single-ply,SBD,M
Boys,124.74,7,Parker Blount,Huntsville,112.94,251.74,129.27,199.58,580.6,Single-ply,SBD,M
Boys,124.74,8,Alex Ellis #1,Texarkana Texas,112.04,235.87,115.67,210.92,562.45,Single-ply,SBD,M
Boys,124.74,9,Cody Bryce,Nacogdoches,119.75,215.46,102.06,195.04,512.56,Single-ply,SBD,M
Boys,124.74,DQ,Jorge Rodriguez,Greenville,114.76,256.28,145.15,,,Single-ply,SBD,M
Boys,124.74+,1,Jensen Jackson,Marshall,125.01,294.84,174.63,242.67,712.14,Single-ply,SBD,M
Boys,124.74+,2,Joshua Byrd,Marshall,144.24,310.71,158.76,240.4,709.87,Single-ply,SBD,M
Boys,124.74+,3,Johnathan Hunt,Texarkana Texas,130.63,249.48,158.76,278.96,687.19,Single-ply,SBD,M
Boys,124.74+,4,Steven Patton,Red Oak,136.08,256.28,154.22,224.53,635.03,Single-ply,SBD,M
Boys,124.74+,5,Montrel Newson,Ennis,158.76,272.16,136.08,226.8,635.03,Single-ply,SBD,M
Boys,124.74+,6,Dan Ruiz,Corsicana,146.06,226.8,156.49,226.8,610.08,Single-ply,SBD,M
Boys,124.74+,7,Dacota Brooks,Marshall,134.26,238.14,133.81,204.12,576.06,Single-ply,SBD,M
Boys,124.74+,DQ,Joseph Baird,Ennis,147.87,217.72,127.01,,,Single-ply,SBD,M
Boys,124.74+,DQ,Gerrard Johnson,Waxahachie,146.96,283.5,154.22,,,Single-ply,SBD,M
