Division,WeightClassKg,Place,Name,Team,BodyweightKg,Best3SquatKg,Best3BenchKg,Best3DeadliftKg,TotalKg,Equipment,Event,Sex,BirthDate
Boys,51.71,1,Colby Plasterer,Ore City,49.44,113.4,68.04,113.4,294.84,Single-ply,SBD,M,
Boys,51.71,2,Crew Goodson,Lindale,41.73,90.72,43.09,104.33,238.14,Single-ply,SBD,M,
Boys,55.79,1,Jacob Gray,Longview Pine Tree,55.79,151.95,86.18,154.22,392.36,Single-ply,SBD,M,
Boys,55.79,2,Henry Suggs,Frankston,55.79,127.01,65.77,136.08,328.85,Single-ply,SBD,M,
Boys,55.79,3,Joseph Cordova,Longview Pine Tree,55.79,124.74,58.97,124.74,308.44,Single-ply,SBD,M,
Boys,55.79,4,Preston Matlock,Tyler,54.43,104.33,63.5,117.93,285.76,Single-ply,SBD,M,
Boys,59.87,1,Kile Stripland,Gladewater Sabine,59.87,151.95,108.86,158.76,419.57,Single-ply,SBD,M,
Boys,59.87,2,Memphis Dorsey,Lindale,58.6,154.22,86.18,174.63,415.04,Single-ply,SBD,M,
Boys,59.87,3,Nicholas Burns,Marshall,57.61,161.03,77.11,163.29,401.43,Single-ply,SBD,M,
Boys,59.87,4,Zane Smith #1,Gladewater Sabine,59.87,142.88,108.86,145.15,396.89,Single-ply,SBD,M,
Boys,59.87,5,Caden Pickard,Longview Pine Tree,59.69,145.15,83.91,158.76,387.82,Single-ply,SBD,M,
Boys,59.87,6,Lane Davis #1,Mount Pleasant Chapel Hill,57.61,129.27,72.57,127.01,328.85,Single-ply,SBD,M,
Boys,67.13,1,Greg Kalulu,Longview Pine Tree,67.13,185.97,108.86,219.99,514.83,Single-ply,SBD,M,
Boys,67.13,2,Chandler Jones,Center,64.41,165.56,95.25,181.44,442.25,Single-ply,SBD,M,
Boys,67.13,3,Luis Williams,Harleton,67.13,172.37,104.33,145.15,421.84,Single-ply,SBD,M,
Boys,67.13,4,Camden Ward,Gladewater Sabine,66.68,151.95,95.25,170.1,417.3,Single-ply,SBD,M,
Boys,67.13,5,Eric Allen,Center,63.05,129.27,79.38,174.63,383.29,Single-ply,SBD,M,
Boys,67.13,6,Cason Hughes,Ore City,65.32,142.88,81.65,154.22,378.75,Single-ply,SBD,M,
Boys,67.13,7,Mathew Wilson,Harleton,65.68,154.22,72.57,136.08,362.87,Single-ply,SBD,M,
Boys,67.13,8,Mauricio Benavides,Tatum,66.5,124.74,90.72,147.42,362.87,Single-ply,SBD,M,
Boys,67.13,9,Darian Lara,Ore City,61.78,120.2,68.04,131.54,319.78,Single-ply,SBD,M,
Boys,67.13,10,Garrett Rice,Pollok Central,66.68,111.13,56.7,124.74,292.57,Single-ply,SBD,M,
Boys,67.13,11,Tanner Myers,Center,67.13,83.91,63.5,122.47,269.89,Single-ply,SBD,M,
Boys,67.13,DQ,Ethan Poindester,Pollok Central,64.68,95.25,,,,Single-ply,SBD,M,
Boys,67.13,DQ,Nathan Pierson,Laird Hill Leveretts Chapel,61.69,,,,,Single-ply,SBD,M,
Boys,74.84,1,Devin Walters,Mount Pleasant Chapel Hill,74.21,204.12,124.74,204.12,532.97,Single-ply,SBD,M,
Boys,74.84,2,Henry Waggoner,Lindale,71.12,199.58,104.33,210.92,514.83,Single-ply,SBD,M,
Boys,74.84,3,Alec Morris,Gladewater Sabine,68.95,204.12,127.01,174.63,505.76,Single-ply,SBD,M,
Boys,74.84,4,Daniel Benitez,Lindale,69.13,179.17,102.06,206.38,487.61,Single-ply,SBD,M,
Boys,74.84,5,Jaylon Woods,Ore City,71.67,158.76,102.06,222.26,483.08,Single-ply,SBD,M,
Boys,74.84,6,DeDe Williams,Marshall,69.13,172.37,97.52,204.12,474,Single-ply,SBD,M,
Boys,74.84,7,Ryan Manning,Marshall,68.76,195.04,90.72,181.44,467.2,Single-ply,SBD,M,
Boys,74.84,8,Nathaniel Sanchez,Longview Pine Tree,72.12,170.1,102.06,181.44,453.59,Single-ply,SBD,M,
Boys,74.84,9,Jq Davis,Marshall,72.57,190.51,63.5,185.97,439.98,Single-ply,SBD,M,
Boys,74.84,10,Tony Alexander,Tyler,70.67,158.76,97.52,172.37,428.64,Single-ply,SBD,M,
Boys,74.84,11,Timothy Davis,Center,71.67,158.76,83.91,183.7,426.38,Single-ply,SBD,M,
Boys,74.84,12,Blake Blassingame,Harleton,73.03,181.44,90.72,149.69,421.84,Single-ply,SBD,M,
Boys,74.84,13,Johnathan Perry,Laird Hill Leveretts Chapel,74.84,158.76,99.79,158.76,417.3,Single-ply,SBD,M,
Boys,74.84,14,Seth Gaskin,Frankston,73.57,151.95,70.31,158.76,381.02,Single-ply,SBD,M,
Boys,74.84,15,Andre Sailese,Tatum,70.76,140.61,88.45,147.42,376.48,Single-ply,SBD,M,
Boys,74.84,16,Samuel Netro,Mount Pleasant Chapel Hill,71.21,136.08,68.04,151.95,356.07,Single-ply,SBD,M,
Boys,74.84,17,Wyatt Comer,Hallsville,68.04,131.54,58.97,145.15,335.66,Single-ply,SBD,M,
Boys,74.84,18,Mason Zane,Harleton,70.31,115.67,56.7,129.27,301.64,Single-ply,SBD,M,
Boys,82.1,1,Jayden Smith #1,Longview Pine Tree,80.74,285.76,145.15,244.94,675.85,Single-ply,SBD,M,
Boys,82.1,2,Cain Martinez,Big Sandy,78.38,206.38,165.56,233.6,605.55,Single-ply,SBD,M,
Boys,82.1,3,Qudariun McMiller,Tyler,82.1,204.12,127.01,195.04,526.17,Single-ply,SBD,M,
Boys,82.1,4,Jaret Allen,Lindale,81.37,188.24,108.86,210.92,508.02,Single-ply,SBD,M,
Boys,82.1,5,Kole Stripland,Gladewater Sabine,77.11,183.7,115.67,181.44,480.81,Single-ply,SBD,M,
Boys,82.1,6,David Walters,Mount Pleasant Chapel Hill,78.74,176.9,102.06,199.58,478.54,Single-ply,SBD,M,
Boys,82.1,7,Dj Huggins,Hallsville,80.29,183.7,102.06,151.95,437.72,Single-ply,SBD,M,
Boys,82.1,8,Chase Adkins,Center,81.19,163.29,79.38,195.04,437.72,Single-ply,SBD,M,
Boys,82.1,9,Lukas Branson,Longview Pine Tree,79.2,147.42,102.06,167.83,417.3,Single-ply,SBD,M,
Boys,82.1,10,Jaxon Riley,Tatum,80.29,147.42,81.65,142.88,371.95,Single-ply,SBD,M,
Boys,82.1,11,Felipe Campozano,Tatum,76.2,124.74,74.84,145.15,344.73,Single-ply,SBD,M,
Boys,82.1,12,Carter Bibb,Harleton,82.1,122.47,61.23,138.35,322.05,Single-ply,SBD,M,
Boys,82.1,13,Isaiah Baker,Tyler,80.29,106.59,56.7,115.67,278.96,Single-ply,SBD,M,
Boys,82.1,DQ,Gage Gosse,Frankston,82.1,190.51,,,,Single-ply,SBD,M,
Boys,82.1,DQ,Jackson Hillliard,Hallsville,77.56,129.27,,,,Single-ply,SBD,M,
Boys,89.81,1,Patrick Martinez,Longview Pine Tree,88,274.42,165.56,285.76,725.75,Single-ply,SBD,M,
Boys,89.81,2,Micah Ward,Tatum,86.64,231.33,102.06,229.06,562.45,Single-ply,SBD,M,
Boys,89.81,3,Daylon Branham,Gladewater Sabine,87.36,213.19,127.01,204.12,544.31,Single-ply,SBD,M,
Boys,89.81,4,Dekylin Hoyt,Center,85.28,204.12,138.35,188.24,530.7,Single-ply,SBD,M,
Boys,89.81,5,Omarr Webber,Lindale,88.9,206.38,108.86,215.46,530.7,Single-ply,SBD,M,
Boys,89.81,6,Jayden Salazar,Harleton,88.9,192.78,120.2,201.85,514.83,Single-ply,SBD,M,
Boys,89.81,7,Carson Evans,Harleton,82.55,199.58,131.54,170.1,501.22,Single-ply,SBD,M,
Boys,89.81,8,David Gibson #1,Harleton,83.82,190.51,113.4,172.37,476.27,Single-ply,SBD,M,
Boys,89.81,9,Waiett Emmerson,Center,88.9,188.24,99.79,181.44,469.47,Single-ply,SBD,M,
Boys,89.81,10,Caleb Whimsey,Hallsville,88.45,165.56,102.06,197.31,464.93,Single-ply,SBD,M,
Boys,89.81,11,Tyler Fridinger,Frankston,82.28,165.56,99.79,197.31,462.66,Single-ply,SBD,M,
Boys,89.81,12,Darren Brown,Laird Hill Leveretts Chapel,88,163.29,120.2,170.1,453.59,Single-ply,SBD,M,
Boys,89.81,13,Jacarveious Horton,Center,85.28,170.1,83.91,181.44,435.45,Single-ply,SBD,M,
Boys,89.81,14,Johnathan Merryman,Hallsville,85.73,185.97,83.91,149.69,419.57,Single-ply,SBD,M,
Boys,89.81,15,Carson Smith,Pollok Central,89.81,147.42,81.65,161.03,390.09,Single-ply,SBD,M,
Boys,89.81,16,Kyle Coleman,Pollok Central,84.82,142.88,72.57,170.1,385.55,Single-ply,SBD,M,
Boys,89.81,17,John Taylor #11,Tyler,84.1,138.35,86.18,149.69,374.21,Single-ply,SBD,M,
Boys,89.81,18,Patrick Musick,Pollok Central,85.28,111.13,63.5,136.08,310.71,Single-ply,SBD,M,
Boys,89.81,DQ,Kaden Anderson,Trinidad,86.82,127.01,79.38,,,Single-ply,SBD,M,
Boys,89.81,DQ,Colton Reed,Gladewater Sabine,89.81,,,,,Single-ply,SBD,M,
Boys,99.79,1,Ethan Thornton,Lindale,90.99,274.42,147.42,267.62,689.46,Single-ply,SBD,M,
Boys,99.79,2,Juan Perez #1,Frankston,95.25,233.6,124.74,249.48,607.81,Single-ply,SBD,M,
Boys,99.79,3,Colton Munoz,Longview Pine Tree,93.62,219.99,140.61,226.8,587.4,Single-ply,SBD,M,
Boys,99.79,4,Jeremiah Lawson,Tatum,91.63,233.6,117.93,199.58,551.11,Single-ply,SBD,M,
Boys,99.79,5,Cole Williams,Marshall,93.44,206.38,108.86,195.04,510.29,Single-ply,SBD,M,
Boys,99.79,6,Riley O'Quinn,Tatum,92.08,188.24,108.86,188.24,485.34,Single-ply,SBD,M,
Boys,99.79,7,Taylor Wilson,Gladewater Sabine,93.8,181.44,117.93,172.37,471.74,Single-ply,SBD,M,
Boys,99.79,8,Samuel Fuentes,Tyler,96.62,181.44,102.06,181.44,464.93,Single-ply,SBD,M,
Boys,99.79,9,Cornelius Hartsfield,Tyler,97.43,172.37,102.06,185.97,460.4,Single-ply,SBD,M,
Boys,99.79,10,Hunter Warford,Hallsville,90.26,151.95,120.2,183.7,455.86,Single-ply,SBD,M,
Boys,99.79,11,Brody Kriegel,Harleton,99.79,172.37,92.99,185.97,451.32,Single-ply,SBD,M,
Boys,99.79,12,Cortavian McMillan,Hallsville,97.07,158.76,79.38,136.08,374.21,Single-ply,SBD,M,
Boys,99.79,13,Monty Powers,Pollok Central,98.88,111.13,54.43,111.13,276.69,Single-ply,SBD,M,
Boys,99.79,DQ,Eric Burns,Laird Hill Leveretts Chapel,91.17,,,,,Single-ply,SBD,M,
Boys,109.77,1,Eric Lopez,Center,108.41,249.48,158.76,188.24,596.47,Single-ply,SBD,M,
Boys,109.77,2,James Nehk,Hallsville,107.5,208.65,138.35,242.67,589.67,Single-ply,SBD,M,
Boys,109.77,3,Isaiah Alexander,Marshall,108.86,226.8,124.74,219.99,571.53,Single-ply,SBD,M,
Boys,109.77,4,Asher Foster,Gladewater Sabine,104.6,181.44,145.15,204.12,530.7,Single-ply,SBD,M,
Boys,109.77,5,KJ Hawkins,Frankston,104.33,210.92,124.74,183.7,519.36,Single-ply,SBD,M,
Boys,109.77,6,Gabe Hart,Lindale,101.88,188.24,99.79,192.78,480.81,Single-ply,SBD,M,
Boys,109.77,7,Rodrick Gardner,Center,107.5,185.97,104.33,163.29,453.59,Single-ply,SBD,M,
Boys,109.77,8,Toby Beard,Pollok Central,106.05,147.42,72.57,147.42,367.41,Single-ply,SBD,M,
Boys,109.77,DQ,Gavin Garcia,Trinidad,102.51,142.88,88.45,,,Single-ply,SBD,M,
Boys,124.74,1,Moses Medrano,Lindale,118.57,247.21,131.54,219.99,598.74,Single-ply,SBD,M,
Boys,124.74,2,Jayden Willie,Harleton,112.94,199.58,108.86,195.04,503.49,Single-ply,SBD,M,
Boys,124.74,3,LeTavion Erwin,Tyler,110.22,179.17,127.01,192.78,498.95,Single-ply,SBD,M,
Boys,124.74,4,Ramon Jones,Marshall,124.74,195.04,104.33,199.58,498.95,Single-ply,SBD,M,
Boys,124.74,5,Tanner Ross,Pollok Central,117.93,192.78,113.4,176.9,483.08,Single-ply,SBD,M,
Boys,124.74,6,Hunter Vasquez,Pollok Central,122.02,156.49,81.65,170.1,408.23,Single-ply,SBD,M,
Boys,124.74,7,Max Ramirez,Harleton,120.2,154.22,79.38,158.76,392.36,Single-ply,SBD,M,
Boys,124.74,DQ,Alejandro Tellaz,Ore City,119.2,,,,,Single-ply,SBD,M,
Boys,124.74,DQ,Alex Paralta,Hallsville,111.36,192.78,124.74,,,Single-ply,SBD,M,
Boys,124.74+,1,Matthew Davis #4,Lindale,195.5,378.75,179.17,272.16,830.07,Single-ply,SBD,M,
Boys,124.74+,2,Jessie Hamelinck,Lindale,132,319.78,185.97,254.01,759.77,Single-ply,SBD,M,
Boys,124.74+,3,Tristan Green,Gladewater Sabine,128.37,244.94,172.37,249.48,666.78,Single-ply,SBD,M,
Boys,124.74+,4,Cameron Gray #3,Gladewater Sabine,143.79,226.8,190.51,204.12,621.42,Single-ply,SBD,M,
Boys,124.74+,5,Cj Fite,Tatum,130.18,249.48,127.01,235.87,612.35,Single-ply,SBD,M,
Boys,124.74+,6,Luke Sandifer,Lindale,125.46,226.8,138.35,229.06,594.21,Single-ply,SBD,M,
Boys,124.74+,7,Taron Satchell,Marshall,132.45,231.33,131.54,229.06,591.94,Single-ply,SBD,M,
Boys,124.74+,8,Brycelen Phillips,Longview Pine Tree,129.73,204.12,142.88,240.4,587.4,Single-ply,SBD,M,
Boys,124.74+,9,LaTravion Hawkins,Tyler,127.01,222.26,149.69,213.19,585.13,Single-ply,SBD,M,
Boys,124.74+,10,La'Corey Buckley,Center,153.77,206.38,138.35,192.78,537.51,Single-ply,SBD,M,
Boys,124.74+,11,Jadarlon Key,Longview Pine Tree,144.51,195.04,104.33,226.8,526.17,Single-ply,SBD,M,
Boys,124.74+,12,Cj Goodwin,Center,166.92,170.1,122.47,208.65,501.22,Single-ply,SBD,M,
Boys,124.74+,13,Kameryn Henry,Center,147.42,151.95,90.72,170.1,412.77,Single-ply,SBD,M,
Boys,124.74+,DQ,Ashton Williams,Tyler,159.85,,,,,Single-ply,SBD,M,
Boys,,NS,Dustin Newman,Mount Pleasant Chapel Hill,,,,,,Single-ply,SBD,M,
Boys,,NS,Morgan Thrapp,Mount Pleasant Chapel Hill,,,,,,Single-ply,SBD,M,
Boys,,NS,Keandre Nesbitt,Longview Pine Tree,,,,,,Single-ply,SBD,M,
Boys,,NS,Brandon Lewellen,Trinidad,,,,,,Single-ply,SBD,M,
Boys,,NS,Montez Shofner,Trinidad,,,,,,Single-ply,SBD,M,
Boys,,NS,BJ Stidham,Gladewater Sabine,,,,,,Single-ply,SBD,M,
Boys,,NS,Jonah Shepherd,Laird Hill Leveretts Chapel,,,,,,Single-ply,SBD,M,
