Division,WeightClassKg,Place,Name,Team,BodyweightKg,Best3SquatKg,Best3BenchKg,Best3DeadliftKg,TotalKg,Equipment,Event,Sex
Boys,55.79,1,Jamahl Johnson,Houston Cypress Woods,51.75,124.74,72.57,149.69,347,Single-ply,SBD,M
Boys,51.71,2,Anthony Grimes,Katy Mayde Creek,51.62,124.74,68.04,145.15,337.93,Single-ply,SBD,M
Boys,55.79,3,Jared Smith,Conroe Oak Ridge,51.94,122.47,56.7,127.01,306.17,Single-ply,SBD,M
Boys,51.71,4,Khyle Hailey,Tomball,48.58,95.25,49.9,117.93,263.08,Single-ply,SBD,M
Boys,55.79,5,Josh Jackson,Conroe The Woodlands,51.94,83.91,56.7,117.93,258.55,Single-ply,SBD,M
Boys,59.87,1,Dalton Webb,Conroe Oak Ridge,55.84,147.42,88.45,158.76,394.63,Single-ply,SBD,M
Boys,55.79,2,Brian Vizuet,Navasota,55.34,140.61,86.18,158.76,385.55,Single-ply,SBD,M
Boys,55.79,3,Matt Lee,Conroe The Woodlands,55.25,136.08,79.38,149.69,365.14,Single-ply,SBD,M
Boys,59.87,4,Justin Hill,Conroe The Woodlands,55.93,113.4,72.57,147.42,333.39,Single-ply,SBD,M
Boys,55.79,5,Aaron Terry,College Station A&M Cons,53.52,113.4,65.77,124.74,303.91,Single-ply,SBD,M
Boys,59.87,6,Dalton Goetzinger,Conroe The Woodlands,55.93,108.86,61.23,131.54,301.64,Single-ply,SBD,M
Boys,55.79,7,Kevin O'Neil,Conroe The Woodlands,55.66,97.52,74.84,111.13,283.5,Single-ply,SBD,M
Boys,55.79,8,DeMarcus Lee,Navasota,52.53,113.4,49.9,113.4,276.69,Single-ply,SBD,M
Boys,55.79,DQ,Josh Hill #1,Montgomery,55.79,165.56,,147.42,,Single-ply,SBD,M
Boys,55.79,DQ,Caffery Penn,Conroe The Woodlands,54.98,136.08,,,,Single-ply,SBD,M
Boys,59.87,1,Zerrick Merchant,College Station A&M Cons,58.97,163.29,97.52,183.7,444.52,Single-ply,SBD,M
Boys,59.87,2,Ryan Sweat,Conroe The Woodlands,58.11,145.15,81.65,161.03,387.82,Single-ply,SBD,M
Boys,59.87,3,Max Baronaske,Tomball,57.47,147.42,79.38,158.76,385.55,Single-ply,SBD,M
Boys,59.87,4,Jc Acosta,Navasota,59.65,113.4,83.91,176.9,374.21,Single-ply,SBD,M
Boys,59.87,5,Nathan Gillmore,Conroe The Woodlands,59.69,124.74,74.84,142.88,342.46,Single-ply,SBD,M
Boys,59.87,6,Cody Scardino,Montgomery,56.65,124.74,68.04,131.54,324.32,Single-ply,SBD,M
Boys,59.87,7,Dillon Blackwell,Conroe Woodlands College Park,57.38,97.52,43.09,106.59,247.21,Single-ply,SBD,M
Boys,74.84,1,Kendrick Armstead,Navasota,67.36,208.65,102.06,195.04,505.76,Single-ply,SBD,M
Boys,67.13,2,Jared Wetuski,Montgomery,63.78,185.97,111.13,195.04,492.15,Single-ply,SBD,M
Boys,67.13,3,Conner Jung,Conroe,66.95,185.97,99.79,197.31,483.08,Single-ply,SBD,M
Boys,67.13,4,Riley Martinez,College Station A&M Cons,66.32,176.9,97.52,170.1,444.52,Single-ply,SBD,M
Boys,67.13,5,Dillon Baker,Tomball,65.77,138.35,90.72,151.95,381.02,Single-ply,SBD,M
Boys,67.13,6,Dan London,Conroe The Woodlands,65.59,131.54,83.91,154.22,369.68,Single-ply,SBD,M
Boys,67.13,7,Cain Amador,Conroe Oak Ridge,67,138.35,77.11,149.69,365.14,Single-ply,SBD,M
Boys,67.13,8,Daniel Marymee,Houston Cypress Ridge,64.09,111.13,86.18,149.69,347,Single-ply,SBD,M
Boys,67.13,9,Scott Lenhart,Conroe The Woodlands,60.65,127.01,61.23,156.49,344.73,Single-ply,SBD,M
Boys,67.13,10,Britton Real,Conroe The Woodlands,66.45,115.67,47.63,124.74,288.03,Single-ply,SBD,M
Boys,74.84,1,Cedrick McCan,College Station A&M Cons,72.8,213.19,117.93,229.06,560.19,Single-ply,SBD,M
Boys,82.1,2,Shamus Johnson,Katy Mayde Creek,75.02,199.58,106.59,215.46,521.63,Single-ply,SBD,M
Boys,82.1,3,Mike Franke,Conroe Woodlands College Park,75.07,219.99,113.4,185.97,519.36,Single-ply,SBD,M
Boys,74.84,4,Colton Beardmore,Houston Cypress Woods,72.44,192.78,113.4,195.04,501.22,Single-ply,SBD,M
Boys,74.84,5,Brett Boswell,Conroe Woodlands College Park,74.25,176.9,113.4,206.38,496.68,Single-ply,SBD,M
Boys,74.84,6,Armontre Sneed,Conroe,72.85,183.7,108.86,172.37,464.93,Single-ply,SBD,M
Boys,74.84,7,Brandon Reistroffer,Montgomery,70.9,154.22,122.47,181.44,458.13,Single-ply,SBD,M
Boys,74.84,8,Torey Miller,Tomball,68.58,149.69,117.93,183.7,451.32,Single-ply,SBD,M
Boys,74.84,9,Jonathan Vargas,Conroe Oak Ridge,74.21,158.76,104.33,172.37,435.45,Single-ply,SBD,M
Boys,74.84,10,Braydon Brechler,Katy Morton Ranch,69.94,158.76,97.52,165.56,421.84,Single-ply,SBD,M
Boys,74.84,11,Andrew Chasteen,Conroe Woodlands College Park,73.21,151.95,83.91,176.9,412.77,Single-ply,SBD,M
Boys,74.84,12,Eric Martin,Conroe,71.62,142.88,83.91,183.7,410.5,Single-ply,SBD,M
Boys,74.84,13,Trevor Cotter,Tomball,69.26,124.74,92.99,151.95,369.68,Single-ply,SBD,M
Boys,74.84,14,Andrew Danheim,Conroe The Woodlands,71.62,138.35,83.91,136.08,358.34,Single-ply,SBD,M
Boys,74.84,15,Travien Vaughn,Houston Cypress Ridge,67.45,138.35,83.91,124.74,347,Single-ply,SBD,M
Boys,82.1,16,Austin Terry,Conroe The Woodlands,75.02,138.35,68.04,136.08,342.46,Single-ply,SBD,M
Boys,74.84,17,Austen Reaves,Conroe The Woodlands,71.08,120.2,65.77,147.42,333.39,Single-ply,SBD,M
Boys,74.84,DQ,Josh Burlison,Conroe,72.85,185.97,97.52,,,Single-ply,SBD,M
Boys,82.1,1,Zach Hohman,Conroe The Woodlands,79.38,308.44,176.9,233.6,718.94,Single-ply,SBD,M
Boys,82.1,2,Bryce Siecko,Tomball,80.2,233.6,145.15,219.99,598.74,Single-ply,SBD,M
Boys,89.81,3,Nick Sweetland,Conroe The Woodlands,82.24,183.7,170.1,195.04,548.85,Single-ply,SBD,M
Boys,82.1,4,Trent Langley,Conroe Oak Ridge,78.88,204.12,124.74,208.65,537.51,Single-ply,SBD,M
Boys,82.1,5,Jose Cantu,Conroe Oak Ridge,79.29,199.58,120.2,215.46,535.24,Single-ply,SBD,M
Boys,82.1,6,Joe Waithaka,College Station A&M Cons,76.57,199.58,129.27,197.31,526.17,Single-ply,SBD,M
Boys,82.1,7,Eric Washington,Montgomery,78.34,204.12,122.47,199.58,526.17,Single-ply,SBD,M
Boys,82.1,8,Adrian Ewing,Navasota,82.1,204.12,104.33,213.19,521.63,Single-ply,SBD,M
Boys,82.1,9,Mike Barringer,Bryan,81.74,183.7,95.25,183.7,462.66,Single-ply,SBD,M
Boys,82.1,10,Chris Rodriguez,Katy Morton Ranch,76.38,138.35,92.99,161.03,392.36,Single-ply,SBD,M
Boys,82.1,11,Colin Fuchigami,Conroe The Woodlands,81.01,120.2,74.84,127.01,322.05,Single-ply,SBD,M
Boys,89.81,12,Eric Whitaker,Conroe The Woodlands,82.33,99.79,63.5,122.47,285.76,Single-ply,SBD,M
Boys,82.1,DQ,Nathan Taylor,Montgomery,75.75,197.31,,,,Single-ply,SBD,M
Boys,89.81,1,Chris Cesar,College Station A&M Cons,84.37,226.8,154.22,231.33,612.35,Single-ply,SBD,M
Boys,89.81,2,Chris Smith #22,Conroe Woodlands College Park,88.18,226.8,131.54,229.06,587.4,Single-ply,SBD,M
Boys,89.81,3,Stephon Richard,Bryan,87.54,219.99,136.08,210.92,566.99,Single-ply,SBD,M
Boys,89.81,4,Alex Clark,Tomball,88.54,204.12,111.13,249.48,564.72,Single-ply,SBD,M
Boys,89.81,5,Oscar Ramirez,Katy Mayde Creek,87.91,226.8,147.42,183.7,557.92,Single-ply,SBD,M
Boys,89.81,6,Chase Parmelly,Montgomery,82.46,208.65,117.93,210.92,537.51,Single-ply,SBD,M
Boys,89.81,7,Juan Nunez,Navasota,84.96,213.19,136.08,185.97,535.24,Single-ply,SBD,M
Boys,89.81,8,Trey Valdez,Houston Cypress Woods,86.95,210.92,106.59,215.46,532.97,Single-ply,SBD,M
Boys,89.81,9,Colin Robertson,Conroe Woodlands College Park,85.68,204.12,113.4,208.65,526.17,Single-ply,SBD,M
Boys,99.79,10,Henderson Watkins,Montgomery,89.95,204.12,113.4,199.58,517.1,Single-ply,SBD,M
Boys,89.81,11,Xavier Benitez,Katy Mayde Creek,87.91,183.7,122.47,165.56,471.74,Single-ply,SBD,M
Boys,89.81,12,Erick Barcenas,Conroe,87.14,183.7,113.4,165.56,462.66,Single-ply,SBD,M
Boys,89.81,13,Brian Jones,Montgomery,87.77,158.76,113.4,181.44,453.59,Single-ply,SBD,M
Boys,89.81,14,Sam Barrett,Montgomery,86.55,174.63,104.33,170.1,449.06,Single-ply,SBD,M
Boys,89.81,15,Chad Murski,Conroe Woodlands College Park,88.22,165.56,88.45,170.1,424.11,Single-ply,SBD,M
Boys,89.81,16,DeMarcus Sanderfer,Katy Morton Ranch,87.86,158.76,72.57,181.44,412.77,Single-ply,SBD,M
Boys,89.81,17,Mark Love #2,Conroe The Woodlands,89.27,154.22,83.91,174.63,412.77,Single-ply,SBD,M
Boys,89.81,18,John Guevara,Katy Mayde Creek,88.18,149.69,86.18,172.37,408.23,Single-ply,SBD,M
Boys,89.81,DQ,Taylor Faridifar,Conroe,85.68,195.04,138.35,,,Single-ply,SBD,M
Boys,99.79,1,Rodney Brown,Navasota,94.85,258.55,151.95,263.08,673.58,Single-ply,SBD,M
Boys,99.79,2,Dylan Thompson,Houston Cypress Woods,96.43,226.8,142.88,231.33,601.01,Single-ply,SBD,M
Boys,99.79,3,Ricardo Aguilar,Navasota,90.31,238.14,127.01,213.19,578.33,Single-ply,SBD,M
Boys,99.79,4,Nathan Mallard,Navasota,92.49,217.72,108.86,226.8,553.38,Single-ply,SBD,M
Boys,99.79,5,Shane Privette,Tomball,98.29,188.24,142.88,215.46,546.58,Single-ply,SBD,M
Boys,99.79,6,Jacob Blake,Conroe,98.52,217.72,138.35,183.7,539.77,Single-ply,SBD,M
Boys,99.79,7,Jeff Martinez,Bryan,96.12,226.8,120.2,185.97,532.97,Single-ply,SBD,M
Boys,99.79,8,Kenny Furches,Conroe The Woodlands,97.84,224.53,111.13,192.78,528.44,Single-ply,SBD,M
Boys,99.79,9,Sam Heaton,Conroe Woodlands College Park,99.43,213.19,95.25,210.92,519.36,Single-ply,SBD,M
Boys,99.79,10,Alfredo Mendez,Katy Morton Ranch,95.53,215.46,106.59,195.04,517.1,Single-ply,SBD,M
Boys,99.79,11,Patrick McCloud,Conroe The Woodlands,96.16,156.49,92.99,195.04,444.52,Single-ply,SBD,M
Boys,99.79,12,Tyler Mt Joy,Conroe The Woodlands,97.07,176.9,102.06,165.56,444.52,Single-ply,SBD,M
Boys,99.79,13,Anthony Presutti,Conroe Oak Ridge,97.66,156.49,108.86,163.29,428.64,Single-ply,SBD,M
Boys,99.79,DQ,Josh Kenny,Houston Cypress Woods,99.74,,,,,Single-ply,SBD,M
Boys,109.77,1,Seve Ramirez,Montgomery,108.59,244.94,147.42,199.58,591.94,Single-ply,SBD,M
Boys,109.77,2,Blake Wiley,Tomball,104.05,210.92,142.88,231.33,585.13,Single-ply,SBD,M
Boys,109.77,3,Dillon Smith,College Station A&M Cons,108.09,238.14,108.86,226.8,573.79,Single-ply,SBD,M
Boys,109.77,4,Matt Marfisi,Tomball,104.1,188.24,122.47,244.94,555.65,Single-ply,SBD,M
Boys,109.77,5,Autra Maxey,Navasota,107.55,240.4,102.06,213.19,555.65,Single-ply,SBD,M
Boys,109.77,6,Clay Boyd,Montgomery,104.05,195.04,131.54,226.8,553.38,Single-ply,SBD,M
Boys,109.77,7,Estevan Villarreal,Houston Cypress Woods,107.73,192.78,142.88,201.85,537.51,Single-ply,SBD,M
Boys,109.77,8,Brandan Ferrel,Houston Cypress Ridge,103.83,206.38,124.74,181.44,512.56,Single-ply,SBD,M
Boys,109.77,9,Hayden Hasenbein,Conroe Oak Ridge,107,206.38,111.13,188.24,505.76,Single-ply,SBD,M
Boys,109.77,10,Steve Stone,Conroe,104.46,188.24,108.86,170.1,467.2,Single-ply,SBD,M
Boys,109.77,11,Jonathan Caesar,Montgomery,107.77,188.24,106.59,170.1,464.93,Single-ply,SBD,M
Boys,109.77,12,Eddie Sierra,Katy Morton Ranch,104.37,172.37,99.79,190.51,462.66,Single-ply,SBD,M
Boys,109.77,13,Grant Bonnette,Conroe The Woodlands,109.63,181.44,88.45,161.03,430.91,Single-ply,SBD,M
Boys,124.74,1,Kenny Coleman,Houston Cypress Ridge,113.04,272.16,165.56,272.16,709.87,Single-ply,SBD,M
Boys,124.74,2,Dewon Davis,Navasota,124.06,285.76,161.03,263.08,709.87,Single-ply,SBD,M
Boys,124.74,3,Jj Bynum,College Station A&M Cons,119.66,265.35,158.76,238.14,662.24,Single-ply,SBD,M
Boys,124.74,4,Jared Baker,Houston Cypress Woods,112.9,272.16,147.42,233.6,653.17,Single-ply,SBD,M
Boys,124.74,5,Nick Alvarez,Montgomery,117.3,254.01,172.37,226.8,653.17,Single-ply,SBD,M
Boys,124.74,6,Terran Alves,Houston Cypress Woods,115.94,233.6,149.69,233.6,616.89,Single-ply,SBD,M
Boys,124.74,7,Caden Walker,College Station A&M Cons,114.35,222.26,176.9,208.65,607.81,Single-ply,SBD,M
Boys,124.74,8,Keith Lewis,Bryan,123.97,249.48,138.35,204.12,591.94,Single-ply,SBD,M
Boys,124.74,9,Grant Wisenbaker,Montgomery,112.94,208.65,136.08,181.44,526.17,Single-ply,SBD,M
Boys,124.74,10,Josh Weingrad,Conroe Woodlands College Park,111.81,195.04,131.54,195.04,521.63,Single-ply,SBD,M
Boys,124.74,11,Ivan Miestchovich,Conroe Woodlands College Park,117.89,163.29,97.52,181.44,442.25,Single-ply,SBD,M
Boys,124.74,12,Tim Silva,Conroe The Woodlands,112.58,127.01,70.31,136.08,333.39,Single-ply,SBD,M
Boys,124.74,13,Manuel Chavez,Katy Morton Ranch,113.35,113.4,61.23,108.86,283.5,Single-ply,SBD,M
Boys,124.74+,1,Theo Reed,Montgomery,143.88,272.16,151.95,226.8,650.91,Single-ply,SBD,M
Boys,124.74+,2,Scott McDuffie,Navasota,125.69,240.4,149.69,222.26,612.35,Single-ply,SBD,M
Boys,124.74+,3,Jacob Bohannon,Navasota,127.6,240.4,140.61,208.65,589.67,Single-ply,SBD,M
Boys,124.74+,4,Christian Curnel,Conroe,143.79,238.14,136.08,188.24,562.45,Single-ply,SBD,M
Boys,124.74+,5,Tim Hines,Bryan,139.89,208.65,127.01,208.65,544.31,Single-ply,SBD,M
Boys,124.74+,6,Mark Poteat,Conroe The Woodlands,138.3,226.8,97.52,183.7,508.02,Single-ply,SBD,M
Boys,124.74+,7,Colby Hermis,Katy Mayde Creek,150.05,181.44,124.74,174.63,480.81,Single-ply,SBD,M
Boys,124.74+,DQ,Wyatt Smith,College Station A&M Cons,128.68,,,,,Single-ply,SBD,M
